^C:\USERS\GYUNGDAL\DOCUMENTS\VISUAL STUDIO 2013\PROJECTS\NEW 자판기\NEW 자판기\DEBUG\소스.OBJ
/OUT:"C:\USERS\GYUNGDAL\DOCUMENTS\VISUAL STUDIO 2013\PROJECTS\NEW 자판기\DEBUG\NEW 자판기.EXE" /INCREMENTAL /NOLOGO kernel32.lib user32.lib gdi32.lib winspool.lib comdlg32.lib advapi32.lib shell32.lib ole32.lib oleaut32.lib uuid.lib odbc32.lib odbccp32.lib /MANIFEST /MANIFESTUAC:"level='asInvoker' uiAccess='false'" /manifest:embed /DEBUG /PDB:"C:\USERS\GYUNGDAL\DOCUMENTS\VISUAL STUDIO 2013\PROJECTS\NEW 자판기\DEBUG\NEW 자판기.PDB" /SUBSYSTEM:CONSOLE /TLBID:1 /DYNAMICBASE /NXCOMPAT /IMPLIB:"C:\USERS\GYUNGDAL\DOCUMENTS\VISUAL STUDIO 2013\PROJECTS\NEW 자판기\DEBUG\NEW 자판기.LIB" /MACHINE:X86 "DEBUG\소스.OBJ"
^E:\NEW 자판기\NEW 자판기\DEBUG\소스.OBJ
/OUT:"E:\NEW 자판기\DEBUG\NEW 자판기.EXE" /INCREMENTAL /NOLOGO KERNEL32.LIB USER32.LIB GDI32.LIB WINSPOOL.LIB COMDLG32.LIB ADVAPI32.LIB SHELL32.LIB OLE32.LIB OLEAUT32.LIB UUID.LIB ODBC32.LIB ODBCCP32.LIB /MANIFEST /MANIFESTUAC:"level='asInvoker' uiAccess='false'" /manifest:embed /Debug /PDB:"E:\NEW 자판기\DEBUG\NEW 자판기.PDB" /SUBSYSTEM:CONSOLE /TLBID:1 /DYNAMICBASE /NXCOMPAT /IMPLIB:"E:\NEW 자판기\DEBUG\NEW 자판기.LIB" /MACHINE:X86 "DEBUG\소스.OBJ"
